Division,WeightClassKg,Place,Name,Team,BodyweightKg,Best3SquatKg,Best3BenchKg,Best3DeadliftKg,TotalKg,Equipment,Event,Sex,BirthDate
Girls,44.23,1,Alexa Rodriguez,McAllen Rowe,44.23,79.38,40.82,92.99,213.19,Unlimited,SBD,F,
Girls,44.23,2,Kailey Salazar,La Villa,44.23,63.5,43.09,86.18,192.78,Unlimited,SBD,F,
Girls,44.23,3,Sophia Segundo,Sharyland Pioneer,42.55,77.11,29.48,79.38,185.97,Unlimited,SBD,F,
Girls,44.23,4,Lexi Pogue,Mercedes,43.45,74.84,43.09,61.23,179.17,Unlimited,SBD,F,
Girls,44.23,5,Mia Perales,McAllen,36.83,56.7,29.48,65.77,151.95,Unlimited,SBD,F,
Girls,47.85,1,Layla Flores,Rio Grande City Grulla,47.4,92.99,47.63,115.67,256.28,Unlimited,SBD,F,
Girls,47.85,2,Aylin Resendez,Rio Grande City Grulla,47.81,104.33,45.36,104.33,254.01,Unlimited,SBD,F,
Girls,47.85,3,Sarai Garza,McAllen Rowe,47.81,102.06,47.63,92.99,242.67,Unlimited,SBD,F,
Girls,47.85,4,Lisa Rodriguez,La Villa,47.85,81.65,40.82,97.52,219.99,Unlimited,SBD,F,
Girls,47.85,5,Joselyn Salinas,La Joya,46.49,61.23,20.41,70.31,151.95,Unlimited,SBD,F,
Girls,47.85,DQ,Layla Trevino,Mercedes,46.77,102.06,,,,Unlimited,SBD,F,
Girls,51.94,1,Lily Contreras,McAllen Memorial,50.26,122.47,58.97,124.74,306.17,Unlimited,SBD,F,
Girls,51.94,2,Maleni Flores,La Joya Juarez-Lincoln,49.94,122.47,52.16,115.67,290.3,Unlimited,SBD,F,
Girls,51.94,3,Melanie Olvera,Mission Veterans Memorial,50.85,95.25,47.63,127.01,269.89,Unlimited,SBD,F,
Girls,51.94,4,Geily Martinez,La Joya Juarez-Lincoln,48.72,99.79,52.16,106.59,258.55,Unlimited,SBD,F,
Girls,51.94,5,Karyme Gutierrez,Mission Veterans Memorial,51.12,92.99,47.63,92.99,233.6,Unlimited,SBD,F,
Girls,51.94,6,Angela Cerda,Rio Grande City Grulla,48.9,83.91,31.75,81.65,197.31,Unlimited,SBD,F,
Girls,51.94,7,Amelie Hernandez,Mercedes,49.49,74.84,36.29,58.97,170.1,Unlimited,SBD,F,
Girls,51.94,DQ,Valerie Campos,McAllen,50.26,,,,,Unlimited,SBD,F,
Girls,56.02,1,Jaylin Colunga,Mercedes,55.34,129.27,65.77,117.93,312.98,Unlimited,SBD,F,
Girls,56.02,2,Jannette Alvarez,McAllen Rowe,54.16,111.13,56.7,113.4,281.23,Unlimited,SBD,F,
Girls,56.02,3,Samantha Solis,La Joya,55.79,74.84,47.63,99.79,222.26,Unlimited,SBD,F,
Girls,56.02,4,Krystal Cornejo,McAllen Rowe,54.61,86.18,31.75,83.91,201.85,Unlimited,SBD,F,
Girls,56.02,5,America Rubio,Edinburg,53.43,63.5,29.48,79.38,172.37,Unlimited,SBD,F,
Girls,56.02,6,Amanda Delgadillo,Edinburg,55.66,61.23,34.02,65.77,161.03,Unlimited,SBD,F,
Girls,56.02,7,Alessandra Benitez,Rio Grande City Grulla,55.34,58.97,27.22,65.77,151.95,Unlimited,SBD,F,
Girls,56.02,DQ,Jolin Villarreal,Edinburg,55.47,108.86,,,,Unlimited,SBD,F,
Girls,56.02,DQ,Avery Rodriguez,La Villa,54.75,58.97,,,,Unlimited,SBD,F,
Girls,56.02,DQ,Keyana Garza,La Villa,53.39,,,,,Unlimited,SBD,F,
Girls,60.1,1,Luna Cuevas,McAllen Memorial,59.1,183.7,104.33,158.76,446.79,Unlimited,SBD,F,
Girls,60.1,2,Jaky Reyna,McAllen Memorial,58.88,172.37,90.72,151.95,415.04,Unlimited,SBD,F,
Girls,60.1,3,Natalia Cuevas,McAllen Memorial,58.74,136.08,72.57,127.01,335.66,Unlimited,SBD,F,
Girls,60.1,4,Leselle Tovar,Mission Veterans Memorial,58.29,106.59,47.63,124.74,278.96,Unlimited,SBD,F,
Girls,60.1,5,Jasmine Marquez,La Villa,57.15,106.59,45.36,108.86,260.82,Unlimited,SBD,F,
Girls,60.1,6,Kina Aguirre,Edinburg,57.29,104.33,40.82,106.59,251.74,Unlimited,SBD,F,
Girls,60.1,7,Isabella Guerrero,McAllen,57.29,102.06,54.43,86.18,242.67,Unlimited,SBD,F,
Girls,60.1,8,Kayla Cortina,Mission Veterans Memorial,58.01,88.45,43.09,92.99,224.53,Unlimited,SBD,F,
Girls,60.1,9,Brisa Guajardo,La Joya,60.1,74.84,29.48,81.65,185.97,Unlimited,SBD,F,
Girls,67.36,1,Debanhi Cavazos,Mercedes,65.41,142.88,61.23,149.69,353.8,Unlimited,SBD,F,
Girls,67.36,2,Cadance Aguilar,McAllen Rowe,65.09,142.88,65.77,117.93,326.59,Unlimited,SBD,F,
Girls,67.36,3,Peyton Reyes,La Villa,65.54,133.81,54.43,138.35,326.59,Unlimited,SBD,F,
Girls,67.36,4,Carlie Rabel,Mercedes,66.45,120.2,61.23,95.25,276.69,Unlimited,SBD,F,
Girls,67.36,5,Krista Corina,Mission Veterans Memorial,67.04,111.13,52.16,102.06,265.35,Unlimited,SBD,F,
Girls,67.36,6,Destinee Rodriguez,Sharyland Pioneer,66.9,90.72,52.16,111.13,254.01,Unlimited,SBD,F,
Girls,67.36,7,Sophia Salazar,McAllen,65.91,97.52,56.7,97.52,251.74,Unlimited,SBD,F,
Girls,67.36,8,Carly Flores,Mercedes,64.05,97.52,38.56,83.91,219.99,Unlimited,SBD,F,
Girls,67.36,9,Alexa Padron,La Joya,62.01,68.04,27.22,95.25,190.51,Unlimited,SBD,F,
Girls,67.36,10,Rashel Solis,La Joya,63.87,43.09,24.95,74.84,142.88,Unlimited,SBD,F,
Girls,67.36,11,Danica Gonzalez,Mercedes,63.09,45.36,22.68,58.97,127.01,Unlimited,SBD,F,
Girls,67.36,DQ,Delilah Salinas,Mission Veterans Memorial,66.13,95.25,52.16,,,Unlimited,SBD,F,
Girls,67.36,DQ,Isabela Garza,McAllen Rowe,67.36,167.83,,,,Unlimited,SBD,F,
Girls,75.07,1,Amanda Soria-Cueto,McAllen Memorial,73.03,183.7,97.52,158.76,439.98,Unlimited,SBD,F,
Girls,75.07,2,Andrea Gutierrez,McAllen Rowe,71.58,167.83,92.99,154.22,415.04,Unlimited,SBD,F,
Girls,75.07,3,Raelynn Torres,McAllen Memorial,69.99,167.83,90.72,140.61,399.16,Unlimited,SBD,F,
Girls,75.07,4,Lauren Quintanilla,Edinburg,73.21,145.15,81.65,145.15,371.95,Unlimited,SBD,F,
Girls,75.07,5,Mya Herrera,McAllen Memorial,72.98,136.08,77.11,113.4,326.59,Unlimited,SBD,F,
Girls,75.07,6,Yaletzy Perales,Rio Grande City Grulla,70.31,131.54,61.23,113.4,306.17,Unlimited,SBD,F,
Girls,75.07,7,Kasey Ibarra,Mission Veterans Memorial,74.66,111.13,61.23,115.67,288.03,Unlimited,SBD,F,
Girls,75.07,8,Khloe Reyes,McAllen,74.84,108.86,61.23,102.06,272.16,Unlimited,SBD,F,
Girls,75.07,9,Jocelyn Sanchez,Edinburg,71.4,108.86,58.97,97.52,265.35,Unlimited,SBD,F,
Girls,75.07,10,Marissa Cantu,La Joya Juarez-Lincoln,73.12,99.79,56.7,104.33,260.82,Unlimited,SBD,F,
Girls,75.07,11,Jessica Anguiano,La Joya,71.76,61.23,29.48,79.38,170.1,Unlimited,SBD,F,
Girls,75.07,12,Stephanie Rocha,La Joya,72.57,52.16,22.68,70.31,145.15,Unlimited,SBD,F,
Girls,82.33,1,Jasmin Elissetche,La Villa,80.33,183.7,99.79,142.88,426.38,Unlimited,SBD,F,
Girls,82.33,2,Adrianne Waller,McAllen Memorial,80.97,120.2,70.31,113.4,303.91,Unlimited,SBD,F,
Girls,82.33,3,Keisha De Anda,Edinburg,78.93,124.74,52.16,106.59,283.5,Unlimited,SBD,F,
Girls,82.33,4,Luz Medina,La Joya,76.79,90.72,49.9,122.47,263.08,Unlimited,SBD,F,
Girls,82.33,5,Valerie Chapa,La Joya,79.02,65.77,34.02,90.72,190.51,Unlimited,SBD,F,
Girls,90.04,1,Alhany Guerrero,McAllen,89.68,161.03,106.59,131.54,399.16,Unlimited,SBD,F,
Girls,90.04,2,Zoey Becerra,Rio Grande City Grulla,85.14,145.15,61.23,113.4,319.78,Unlimited,SBD,F,
Girls,90.04,3,Savannah Solis,McAllen Rowe,82.6,133.81,58.97,120.2,312.98,Unlimited,SBD,F,
Girls,90.04,4,Jaymee Gomez,La Joya,88.99,99.79,45.36,113.4,258.55,Unlimited,SBD,F,
Girls,90.04,5,Debanhy Orendain,La Joya,88.31,81.65,31.75,104.33,217.72,Unlimited,SBD,F,
Girls,100.02,1,Kylie Trevino,Rio Grande City Grulla,98.93,213.19,104.33,174.63,492.15,Unlimited,SBD,F,
Girls,100.02,2,Araceli Reyna,Edinburg,97.02,154.22,83.91,136.08,374.21,Unlimited,SBD,F,
Girls,100.02,3,Anna Esquivel,La Joya Juarez-Lincoln,98.97,149.69,77.11,136.08,362.87,Unlimited,SBD,F,
Girls,100.02,4,Jaliyah Luna,Sharyland Pioneer,97.11,92.99,65.77,95.25,254.01,Unlimited,SBD,F,
Girls,100.02,DQ,Yanet Cruz,La Joya Juarez-Lincoln,95.71,167.83,97.52,,,Unlimited,SBD,F,
Girls,100.02,DQ,Noellie Rodriguez,Mercedes,91.04,147.42,74.84,,,Unlimited,SBD,F,
Girls,110,1,Mia Hurtado,La Joya Juarez-Lincoln,107.86,154.22,88.45,113.4,356.07,Unlimited,SBD,F,
Girls,110,2,Briana Ramirez,Mercedes,100.33,131.54,56.7,133.81,322.05,Unlimited,SBD,F,
Girls,110,3,Yulianna Carbajal,La Joya,104.73,68.04,36.29,90.72,195.04,Unlimited,SBD,F,
Girls,110+,1,Jezell Garza,McAllen,111.58,142.88,88.45,111.13,342.46,Unlimited,SBD,F,
